1000
step:19995 columns:id,pos dt:0.003 cell:9.41036028881,9.41036028881,9.41036028881 
A 0.915708 -0.197700 4.505203
A -0.600027 3.629888 -0.044888
A 1.897625 4.598028 2.912815
A -4.274046 0.944797 3.532466
A 1.202054 2.646759 2.400717
A 2.204844 2.957606 -1.867717
A 4.534941 4.646913 -2.197380
A -0.446097 -3.608478 4.200905
A -3.510559 4.637156 -0.517833
A 0.881521 -0.665269 0.397992
A 3.816787 3.430786 2.818768
A -0.423712 1.727939 0.354726
A 2.130122 0.950118 1.590700
A -3.211354 -3.941885 4.081530
A 2.306703 -2.166594 3.841716
A 4.465357 2.174382 -1.399178
A -4.329286 -3.842093 -3.811212
A -2.048929 -2.848500 3.841332
A -2.296227 -1.240151 -4.410610
A -2.281366 1.067640 1.718270
A 2.287428 0.859775 0.595842
A 3.000199 3.030561 4.369128
A -2.021897 3.807569 2.586499
A 3.186727 -3.813290 -1.999854
A -2.997396 -3.186518 3.307379
A -0.937441 -3.189412 0.243947
A 1.407178 -1.254876 4.431745
A 3.912773 0.797212 -0.590933
A 3.724049 -1.456984 -1.991274
A -2.548470 -1.327887 -2.486536
A 1.770340 0.740412 2.538244
A 2.330784 1.111658 -2.768044
A -4.183244 2.189342 2.769640
A -0.472899 1.370537 -1.536950
A 1.157659 4.264915 0.189403
A -4.497406 2.060943 1.754056
A 3.080804 -1.551390 -4.647033
A -4.242063 -0.587699 -0.291762
A 4.032403 3.847590 4.121503
A 1.326954 -2.007916 3.434393
A 4.549752 2.003379 0.510280
A -2.305235 4.576253 -0.827867
A 0.005034 -1.836083 -3.725027
A -0.313240 -2.721364 -0.592891
A 3.217032 1.408093 -2.991209
A 0.279890 1.945453 4.465633
A -3.678421 2.124358 -1.211668
A -4.366501 4.073961 2.427511
A -0.461894 -2.026991 0.828764
A 3.779639 0.074029 1.942893
A 0.759059 -4.039352 3.607391
A -0.128059 -1.502365 -0.813538
A -1.640962 2.166808 4.525639
A -2.991949 -4.064560 1.240289
A -2.769046 -1.383654 2.160232
A 0.227641 -2.600100 0.384385
A -0.479810 3.171803 0.867937
A 2.648928 -4.201508 3.918982
A 0.473333 -2.665286 -4.134396
A 0.829139 1.331438 3.094490
A 3.537340 -2.918926 1.954363
A -1.436105 3.310555 3.416342
A 0.197454 3.714096 4.684631
A 2.212187 1.316647 4.637832
A -3.310643 -3.897455 -4.184223
A -3.388699 -4.542044 1.974321
A -4.446315 3.011468 0.317077
A -3.032984 4.310440 -3.402854
A -2.819000 -3.691394 0.292318
A -4.462363 -2.831759 0.825401
A 1.568947 1.774242 2.739762
A -1.034106 -1.310042 3.283881
A -4.040305 -1.054732 1.539852
A -1.741318 -4.133613 -1.352540
A -0.476706 3.528982 3.896580
A -3.929180 1.329610 2.450878
A 3.710006 -3.576232 -2.867682
A 0.756989 -0.796996 -0.577416
A 3.343691 0.757710 0.501953
A 0.543926 3.657115 -1.267651
A -4.271787 -4.224002 1.342997
A -2.788372 -3.029489 1.364224
A 0.220963 -3.481380 -1.969012
A -3.879165 -0.141034 1.651867
A 0.278040 -4.589184 1.438581
A -1.075969 3.134824 -3.971547
A -4.010386 4.008996 -2.604862
A 3.834101 -0.123591 3.160316
A 2.994396 3.563151 0.536356
A 2.949514 2.837752 -0.131156
A -4.207001 2.810588 -1.823334
A -0.106294 3.610378 -2.814843
A -4.287763 -3.891551 4.549380
A 1.013857 3.627097 -4.038991
A 3.508834 2.415504 -2.849864
A -3.084636 3.417483 -2.937614
A 2.895585 -1.745530 3.128995
A 4.055309 -2.663538 -3.262249
A -2.053151 -3.635033 1.498969
A -1.187169 -4.155135 -0.008843
A 3.736268 0.702358 -1.627559
A 2.210742 2.561128 2.494425
A -1.311759 -0.404840 -0.710302
A 3.777107 -2.874703 -0.185517
A -2.876569 2.088288 1.123164
A 1.202208 3.320244 -2.086395
A 0.659801 2.911374 1.315731
A -4.100111 4.301571 -3.613430
A 4.068381 -1.141203 3.008071
A 3.410986 -3.885827 -0.184353
A 0.934199 0.357030 2.039669
A 1.550396 -0.476266 3.796024
A 2.864092 -4.205263 2.964955
A 3.142694 -2.589464 -4.536192
A 2.671887 -2.912859 -1.925508
A -2.236674 0.611633 -3.026812
A -1.774261 -1.762738 2.489626
A -2.156461 -4.610162 -3.735854
A -3.068906 -1.981021 1.333857
A 1.921471 -0.006527 1.898569
A 0.510187 1.392537 0.465804
A -3.760583 -2.913911 -1.167169
A 2.759732 3.083765 -2.807609
A 3.587379 3.554430 -2.668052
A -2.122966 -1.228152 3.332768
A -1.283970 -1.843987 -4.152952
A -1.609297 -1.467991 -2.513402
A -0.538729 -4.493520 0.547885
A 4.308816 -0.805308 1.809683
A 1.951334 0.337064 -1.010424
A -4.252700 -0.198617 4.226298
A 4.371914 -4.513168 3.097563
A 3.089681 2.563292 2.029552
A 1.240908 -2.194477 4.397124
A 3.733573 -3.929261 3.548794
A -0.163369 -0.421910 -0.978663
A 3.422850 0.943735 1.473380
A -0.645669 3.029866 -2.154738
A 1.544192 2.477797 -0.088373
A -4.366076 4.549043 -4.541146
A 4.018594 -4.043696 -3.754244
A 1.990010 4.604637 1.112047
A -2.883482 0.733601 -1.704464
A 3.373418 -1.185595 0.822206
A -4.144819 2.019187 3.994119
A -1.194517 -4.078162 1.101911
A 3.121919 -3.317861 0.742878
A 0.121630 -2.818575 1.417058
A 3.580387 3.830375 -3.713279
A -3.108229 4.189665 -1.377087
A 3.116840 -0.826402 3.295922
A -2.203736 4.576694 -1.898756
A -3.120556 2.339229 3.982856
A 2.233675 -1.760106 0.771929
A -1.393766 4.115398 -0.153592
A -0.480867 -0.377481 1.056880
A 3.827525 -3.979589 -1.169943
A 1.348301 2.335348 1.508408
A -0.188884 -4.409362 -4.351339
A 3.610964 3.642526 -1.559035
A -4.410176 4.471697 -0.920738
A 0.284206 -3.178478 3.348485
A 2.722219 -3.248570 -0.238778
A -0.630398 2.263184 4.177388
A 0.461456 4.072159 -2.171715
A 2.648038 2.049006 -2.206158
A 2.644222 2.060305 -3.258893
A 0.024219 -2.683359 4.427236
A -0.852790 -0.074152 0.112587
A -2.559042 -2.403515 -0.865265
A 0.516544 0.363169 -4.086390
A -4.116443 0.840352 1.539247
A 0.611723 -3.485146 0.148521
A -0.160958 -4.661376 -2.490290
A -1.083365 -2.739443 4.617352
A -2.860011 4.190133 1.088491
A 4.507498 -1.625198 1.008248
A 3.409408 2.042894 4.260579
A -2.096024 0.232163 -1.441777
A -1.197021 -2.333176 0.047599
A 2.075738 -3.630465 2.522958
A -2.328537 -0.617636 2.561137
A -3.601382 -3.383900 -3.143036
A 3.857731 -1.033865 -4.171201
A -1.024049 -0.976840 -3.320286
A -0.873959 -3.927178 -2.905263
A 3.999666 -3.004201 3.588181
A -0.944604 -2.284776 2.675578
A -3.531618 -0.988270 4.624547
A -4.238752 3.773339 4.200038
A -0.130802 0.541656 2.865944
A 3.963049 2.970832 0.222489
A 0.897240 4.002760 2.795336
A 1.701091 -2.828285 -0.788840
A 3.561793 3.406350 1.429673
A -2.367995 -0.546359 -0.555610
A 2.734650 -3.833411 -4.358121
A -1.755339 1.455429 -1.229650
A 1.812459 -4.273988 -4.074840
A -1.526080 -3.281340 -1.712498
A -1.842544 4.239034 3.540683
A 0.503161 -3.602232 4.626483
A 1.838381 -2.067783 2.422277
A -4.025325 1.303087 -0.740376
A -2.306494 2.950088 3.081440
A 1.092441 1.291068 -2.927980
A -1.766785 0.452153 -0.412630
A 3.838955 3.999462 0.465825
A 4.332885 0.059933 -1.219025
A -1.531158 4.098287 -1.302599
A -2.259640 0.470721 -4.273716
A 1.608525 3.347467 1.568153
A 2.045856 -1.205195 3.232347
A -0.390982 -2.133693 3.500268
A -3.141959 1.419977 1.846968
A 2.586309 3.865633 1.497052
A 2.808699 -1.011934 -2.220970
A -4.456241 -1.378207 -2.212578
A -3.188794 3.406668 0.282074
A 4.438294 1.422239 2.942308
A 3.263218 -1.935196 -3.782853
A 4.362091 1.610050 4.065378
A -4.377584 -1.870325 -1.373901
A 3.597362 -2.541179 -2.216528
A 1.911955 -2.313712 -1.769303
A 1.204419 -0.656065 -3.943592
A 1.992174 3.476217 -4.662590
A 2.422862 2.126402 3.574116
A -3.826970 4.703129 3.731349
A -2.740513 2.221175 0.111488
A 2.527179 -1.190506 4.046612
A -2.739923 4.226513 0.068036
A -2.148517 2.575186 1.649169
A -3.247058 3.275463 -1.241580
A 1.826655 1.987607 -1.610745
A -2.254850 4.699151 1.674662
A -0.727346 4.434393 3.370901
A -2.696262 -3.198357 -3.390673
A 0.445197 -0.443584 2.604527
A -2.631323 0.357014 0.076567
A -4.079519 0.264956 -1.136402
A -2.819836 2.420676 -4.338841
A 1.467742 1.410324 -3.952490
A 3.157823 4.043333 4.596317
A 1.275503 -4.269494 2.469338
A 0.258991 -4.475811 0.152853
A -3.775069 0.812342 4.452465
A 4.063888 -2.120621 -1.403779
A -1.333405 0.615608 -1.897613
A 0.771250 2.585415 -4.328329
A 3.972708 4.480412 -4.494354
A 1.435437 -0.268437 2.797885
A -3.329209 -2.088613 4.627908
A 1.232402 -1.756666 -1.079168
A -0.486057 3.455330 -1.153404
A -3.626078 -0.229387 -1.914182
A -3.155049 1.435152 -2.965415
A 1.955438 -4.604092 -2.753277
A -1.911906 -0.830534 -1.470464
A 4.456007 0.848725 -3.740240
A 0.672036 -2.542562 -0.509960
A -4.513766 -0.963283 -4.280345
A -2.931115 -3.073416 -1.596642
A -1.614541 -3.537905 3.079549
A -0.691787 3.146339 1.913655
A 2.318659 -1.491707 -1.107404
A -1.227229 3.795877 4.557585
A -0.803793 4.400554 -0.890662
A -3.175793 1.691044 3.057166
A -1.558330 -1.385967 4.306586
A 0.890568 -1.606567 2.194380
A -0.093637 3.758872 2.876267
A 0.849617 -2.508525 2.046705
A -2.718545 4.510340 2.604513
A -3.673499 -4.616788 0.780735
A 2.284810 0.109259 -2.706895
A 4.053964 -2.185783 -4.394804
A 4.290788 -4.275008 -0.428513
A 4.123878 2.485826 1.457046
A -2.945430 1.672357 -1.938535
A 3.395243 2.601740 -1.889853
A -0.108427 2.472507 -3.951500
A -2.822951 1.231302 -3.959847
A 0.524389 1.341287 -4.110220
A 1.330151 4.295809 1.978780
A 1.499941 0.062075 0.425112
A -3.911325 3.880691 0.041167
A -4.435020 -0.473407 2.528503
A 4.328012 3.727360 1.934056
A 3.540082 -0.268299 0.843209
A -3.360297 0.531198 -2.583990
A -0.841144 1.632500 -3.136871
A -1.533566 1.837515 1.660485
A 4.149448 2.979385 -3.498984
A -3.696301 2.741278 -2.757381
A 1.147180 0.920371 4.153805
A 0.926010 0.228941 3.499548
A 2.932401 0.090886 1.476361
A -4.394295 -2.837793 -3.225047
A -0.095715 -0.180175 4.674944
A 4.499781 -1.547047 -0.573905
A 2.247900 1.299563 -0.876853
A -4.126966 -1.216501 0.580333
A -2.243558 -4.514577 0.546738
A 2.354155 -4.066610 0.398711
A -2.590059 3.701602 -2.030042
A -1.809328 -0.148193 -3.547061
A -2.083220 1.664065 0.826955
A -0.105673 -1.069111 -1.726228
A 1.611215 -1.710256 -3.804414
A 0.749470 0.407412 -0.209201
A 0.380284 -1.597844 3.991550
A -0.725308 2.118707 2.121693
A -3.139639 3.284194 -4.128529
A -0.580436 4.175337 1.576429
A -0.586781 4.004720 -2.028565
A 1.881350 3.764998 -2.472507
A -3.731922 -3.397161 1.117674
A -4.326430 0.946191 -3.004874
A 3.015303 3.048759 -4.023711
A -3.862221 -3.084822 2.901474
A -4.149623 -2.899183 1.862638
A -2.310399 2.025642 3.276953
A 2.217633 -2.800042 1.968033
A 2.628340 -0.545042 -0.875452
A -0.888669 -1.957327 -3.192106
A 0.019840 3.997753 0.728990
A -2.480880 3.350798 -0.543530
A -1.100838 2.139745 -1.312407
A 2.210765 2.460062 4.450071
A -2.815833 2.350325 -2.771368
A -1.426657 -2.132304 3.655451
A -3.919363 -1.714016 -0.187129
A -3.694561 3.980267 3.097713
A -2.289815 3.962739 -4.454627
A 2.975224 -0.815790 -3.199255
A 2.573497 -2.013000 -2.466486
A -1.755323 -2.745935 -3.999176
A 3.618132 4.592768 -2.840599
A -0.463403 -3.160915 -1.438200
A 0.958909 -1.187372 3.219890
A 2.811392 3.249195 3.205062
A -1.797041 1.182435 4.677995
A -2.522570 -2.821818 0.057160
A -1.562040 1.159539 -3.678774
A -2.735037 -0.414357 3.418454
A -0.737893 1.592899 -4.341385
A -0.901316 -1.382294 1.626309
A 3.941260 -0.037060 4.200111
A -2.852782 -0.818127 -1.678508
A -3.538203 -2.121247 3.297335
A -3.889333 -3.041937 -4.347357
A 0.927361 -4.479693 -2.183408
A -0.608489 1.515995 3.012384
A 3.036137 -2.020999 -1.547787
A -2.974483 3.324976 2.415866
A -1.402313 -1.576934 -0.678348
A 1.986851 -3.446584 -3.591263
A -3.510340 -4.092466 3.100381
A 4.125958 0.512501 0.977007
A -4.581980 2.577407 -0.543952
A 3.924892 1.679688 -3.663489
A -3.387128 -2.010920 -1.032744
A -0.073826 0.885630 4.627848
A 3.018604 -2.981061 3.919127
A -1.237278 -3.867064 -4.696886
A 4.643563 0.652134 4.507975
A -0.936427 -3.041117 3.557449
A -1.151337 -4.418911 -3.891746
A 2.315346 -0.083314 3.181909
A 0.368514 -0.506667 3.718246
A 0.984768 0.224461 -1.179869
A -3.775700 -0.237193 3.323246
A 1.065875 -3.497807 -2.459882
A -2.160965 -2.284857 1.774239
A -3.571981 2.342850 1.834073
A -3.468901 1.757032 -4.586455
A 0.953488 1.752028 -0.523745
A 3.902174 2.972905 3.824194
A -0.679834 4.095037 -4.107584
A -2.260221 3.000683 0.516113
A 4.498383 0.355036 2.617781
A 0.885651 0.516143 -2.097111
A 2.404424 -2.640701 2.953413
A 3.425202 -2.916091 -1.149290
A -1.910775 -1.093225 0.088424
A -2.985503 -4.106818 -3.275333
A -2.779466 3.838930 3.391706
A -1.549318 -2.726872 0.976516
A -2.476532 -2.676772 -2.661016
A 4.664551 -2.169945 0.173792
A 3.676330 2.590554 -0.810777
A 3.838682 1.229227 -4.533952
A -0.697674 -3.950051 2.921124
A 3.079941 0.125792 3.731651
A 2.393234 -1.163688 -4.136898
A 2.544622 -0.933688 2.404647
A -2.909067 -1.681195 -0.024120
A 3.818602 -1.782603 1.799844
A -2.220115 -2.320440 4.704909
A -4.178038 -1.823000 -3.065289
A -4.565679 -4.665404 0.204924
A 0.853048 -0.645754 -2.587670
A -0.875147 -3.879281 -0.824600
A 2.668269 1.628092 2.299580
A -1.977393 -0.032844 1.685842
A -4.441339 2.961723 3.379883
A -4.013519 3.134184 2.444191
A -1.431852 3.614221 -2.162908
A 2.119855 3.922515 0.267024
A -1.065964 1.063711 2.263166
A 1.265808 1.817057 4.546300
A 4.407804 1.660293 -0.527021
A 2.142286 -1.276018 -2.989890
A -1.382749 -0.850726 -4.278686
A -2.143683 1.589834 -3.119005
A -0.515803 -0.468951 2.776262
A 0.026272 4.454894 -1.348488
A 4.589041 -4.537572 -3.135932
A 0.146047 2.133129 3.446679
A -1.514876 0.132530 2.564324
A -0.363986 0.878529 -3.713033
A 3.723646 1.714658 0.909720
A -4.239186 3.801990 -1.670000
A 1.316833 4.353399 -3.477989
A -0.627312 -4.141447 -1.756349
A -0.780595 0.385403 3.813013
A 0.296230 -0.718880 1.703134
A -3.854663 2.004410 -0.050878
A -3.174487 0.631885 3.397824
A 0.185328 -2.379274 -3.007893
A -4.696487 -3.974125 -1.645749
A 3.659272 -3.569521 4.498911
A 0.096285 -4.150925 -0.858061
A 3.387327 2.351100 3.146164
A 0.128182 1.656090 2.382710
A -2.639473 -2.075240 -1.936839
A 2.973840 -4.641606 1.077408
A 1.729567 3.261942 -3.470828
A -4.011565 0.402580 -0.076619
A -0.566276 0.836621 -2.425485
A -0.487861 2.826318 3.167724
A 0.860769 -0.790130 -1.515428
A 1.466856 4.287249 -1.714840
A 3.623030 4.484843 2.312450
A 1.089972 3.288728 4.330469
A -1.665742 -2.267360 -1.261298
A 2.008995 0.447787 4.138613
A -2.604713 -0.045154 -2.204948
A 2.355672 -4.518081 2.102012
A 2.912839 0.076804 2.486749
A -1.498819 2.527744 -2.110155
A 4.579513 3.653017 -4.110520
A -2.585434 4.454568 4.175492
A 2.738737 -3.640981 1.777083
A 3.758832 3.231504 -4.548923
A 2.469777 0.021795 -0.044255
A 1.563967 -3.842870 -0.361446
A 1.731619 -4.197014 4.036491
A 4.390122 -1.692972 -3.634848
A -3.322854 -1.494377 -3.850544
A 4.319921 2.594759 2.380545
A 0.196410 1.720484 -3.226928
A -1.509188 -0.475339 -2.657779
A -2.328427 0.289322 4.176945
A 4.152902 4.441309 -1.219506
A 0.149433 -0.510575 -3.688804
A -1.616419 3.081230 -0.299159
A 0.316939 1.891514 1.343524
A 2.552502 -0.009413 -1.736096
A -0.698099 -0.166553 -4.012511
A 1.857804 3.484660 2.507709
A 0.232425 4.620339 4.154600
A 2.335929 2.129439 1.461994
A 3.463668 -4.676047 -1.903290
A -1.307897 -3.697266 2.114777
A -1.368417 -2.351316 -2.457570
A 3.259369 -3.338844 -3.819246
A -0.499238 0.823792 0.063063
A 4.563240 -0.734977 3.757168
A -2.117166 3.019568 -2.702096
A -0.204277 0.240437 1.969095
A -3.231449 -0.100926 4.261564
A 0.812621 -1.686727 0.052367
A -4.247639 3.216658 1.398260
A -1.374638 0.190802 4.683284
A -3.284627 0.160041 0.810564
A 0.161214 4.078963 -0.346964
A -2.822416 3.339353 4.297898
A 0.532161 3.797608 3.747437
A 1.066818 1.308145 1.983846
A -3.895395 -4.405889 -2.870171
A 2.722268 2.023845 -1.260247
A 1.593548 -2.287697 1.320643
A 2.585105 0.384449 -4.391558
A 4.174982 -0.857947 0.133150
A -3.511101 3.904802 1.873647
A -3.831066 0.999292 -3.774450
A -4.639013 -2.505649 3.232793
A 3.454646 -1.361571 -0.773947
A 1.998973 -0.445314 -3.567204
A -0.933166 1.303278 4.248932
A -4.082099 -2.081489 1.365738
A 3.046415 4.508570 -0.002745
A 1.266982 -4.071219 0.581457
A 4.274531 2.947622 -2.153759
A -2.338464 -2.142807 0.736424
A -3.888464 1.038463 -1.734361
A -1.386278 -1.637548 0.755215
A 4.694675 2.910317 4.479915
A 1.202663 -0.516755 1.370805
A -2.898231 -0.244831 1.943063
A -2.439614 2.640871 -1.634210
A 2.025880 -3.680573 -2.334383
A -0.039127 2.612502 -1.469012
A -0.062630 -1.542379 -2.603887
A 1.532376 3.846954 3.562229
A -0.861006 0.508545 1.003297
A 2.737836 0.445036 -3.467599
A -1.495995 -2.996238 -0.543422
A -0.904240 -0.332670 -1.627917
A -2.807927 -3.103864 -4.685156
A -2.711716 1.605639 -0.977184
A 3.232347 -1.946827 0.281334
A 1.176577 2.316090 3.636974
A 4.463304 -4.584731 4.140624
A 2.377025 -3.496804 -1.112014
A 1.107975 2.172433 -3.395055
A -2.156826 1.091327 -2.166399
A 2.996794 1.305953 3.398098
A -4.692428 -0.862662 -3.071984
A -2.976527 -3.438498 -0.660416
A -3.154821 -0.843337 1.153489
A 2.494460 3.626500 -0.591274
A 4.520886 -3.465224 1.392943
A -2.758140 -0.365865 -4.211697
A -1.248161 2.141317 3.400726
A 1.799452 1.275409 3.508770
A -2.163841 -3.230357 2.335613
A 0.288275 0.529212 -3.043599
A 4.084825 -3.241092 -1.907378
A 0.981258 -3.634203 -3.891165
A -4.378569 -3.714330 3.580470
A -3.628092 -1.041475 -2.577690
A 3.081966 -0.413741 -4.617105
A 2.118549 -3.301340 3.642798
A -3.839740 1.695565 0.903423
A -3.557914 2.374994 -3.657043
A 0.201613 2.886661 4.133636
A -1.983121 -1.165568 -3.459519
A -4.185047 -2.090793 -4.235026
A 1.066457 -3.138472 1.172541
A 3.803996 4.350228 1.343780
A -1.070387 3.790046 2.663708
A 3.469373 4.501603 3.433631
A 1.871460 -2.817039 -2.592825
A -0.198880 -3.626951 0.757808
A -3.175276 -3.578641 2.236261
A 4.598989 -2.968854 -1.062079
A -3.982172 3.384672 -3.504103
A 3.651862 3.653468 -0.495577
A 3.732664 0.547631 -3.066170
A -3.449402 -0.888166 2.643059
A 1.326768 4.275276 4.464681
A 2.243659 -2.284162 -3.314590
A -1.910323 -1.226706 1.534658
A -0.715308 2.563873 -0.036114
A 1.578577 -3.971270 1.587069
A -1.640247 1.744612 2.632341
A 3.779709 -3.904648 2.498949
A -1.525383 -0.419135 3.832855
A 1.699505 -0.837156 -0.318407
A 1.155302 -2.531151 -3.232826
A 3.502251 1.513058 -1.929548
A -0.337267 -3.361115 -4.091015
A 3.678061 -3.901543 1.427544
A -0.143669 -3.224377 2.254489
A 1.441060 -2.874720 0.273189
A -1.483294 -0.732137 0.863923
A 3.873316 -2.514645 1.036459
A 4.493659 3.877197 -3.024401
A -3.016997 1.078963 0.812617
A 3.298621 -3.073311 2.888372
A -2.798119 -4.157509 -1.343038
A -1.776722 -4.669168 4.705101
A 0.984591 3.965335 1.039353
A 1.319320 3.227577 0.544920
A -1.271012 2.555091 0.980217
A -1.368799 3.558056 -3.129956
A 0.314152 4.242104 -3.704813
A 0.285858 0.899686 1.399999
A -1.452040 2.660364 2.648073
A 3.524227 -0.539537 -1.384489
A 2.453442 -4.233305 -0.526454
A 1.202232 -3.189818 2.980955
A -2.032403 2.316217 -0.684632
A -4.442875 -2.820495 -1.972758
A 3.846395 -2.280228 2.752507
A -3.539401 2.841387 -0.381183
A -1.637142 3.111351 -1.310118
A 1.722308 2.987622 3.347540
A -3.223891 -2.073602 -2.961441
A 4.589157 2.280252 -2.873709
A -3.081084 -0.782883 0.211099
A 2.353443 -4.644271 -1.666374
A 0.123080 1.109360 3.683365
A 2.824820 -3.058557 -2.930392
A 1.241889 -3.119018 3.998395
A -0.179829 -0.492389 -2.720698
A -0.024125 -1.243326 2.983920
A -2.857638 2.366508 2.529460
A -0.583389 -1.856626 4.440885
A -3.669775 -3.559026 -1.847957
A -0.303526 1.940995 -0.656245
A 4.151058 -1.797633 3.684819
A 2.918944 -2.460235 1.204034
A 3.410324 1.572217 -0.916577
A -3.057547 0.412429 -3.525510
A -2.346488 3.570261 -3.580956
A 3.705926 0.343864 -4.146007
A 0.533704 3.205819 -0.047686
A -2.543853 1.688313 4.416100
A -1.011625 0.621846 -1.004595
A -4.691814 0.386983 -2.145841
A 0.611592 -4.385836 -3.093823
A 1.752377 1.785750 0.701921
A 4.231429 -3.495298 0.422017
A 4.052576 0.756864 3.655897
A -2.323680 -0.248006 0.763770
A 0.038870 -1.175911 0.733738
A 0.765698 2.399119 -2.380415
A -3.606543 -1.981740 -1.967101
A -3.071075 3.149837 1.457819
A -3.491860 -1.231410 3.619872
A -1.862162 0.745493 0.739422
A -0.753626 -2.838590 -3.435239
A -2.356425 1.035150 3.471253
A 3.208311 2.563157 0.955632
A 4.232245 2.281695 -4.380475
A 2.872732 1.154834 -0.203822
A 2.500576 4.294520 -4.145917
A -4.433361 1.522709 -4.499080
A 3.768014 -1.048417 4.239847
A -4.022458 -4.617895 -1.859868
A 1.245062 0.955033 1.091049
A 0.683170 3.025084 3.179490
A -0.714779 -3.238545 1.510521
A 0.869344 3.431110 -3.032415
A 0.126170 0.184944 0.556437
A -2.491382 -4.012502 3.087992
A 1.746371 -1.317209 1.640293
A 3.191056 0.909612 4.287937
A 3.038468 1.905998 -4.178988
A -1.394372 4.352217 0.765852
A 0.810483 -2.007213 0.927986
A -3.950048 -2.932658 -0.177955
A -0.356384 -1.112276 -4.361570
A 4.407497 0.188464 -0.022031
A 0.145177 2.762286 2.318423
A 3.267767 -0.781751 1.744491
A -2.222961 4.178441 -2.814533
A -3.384217 4.514435 -4.362632
A -3.871037 -0.119241 -3.122689
A 0.568423 -2.291711 2.910292
A 4.396179 -4.422961 1.954233
A -1.685501 -4.512710 -2.882731
A 4.380364 -2.150091 -2.508022
A -1.620967 -3.099514 -2.975410
A 2.745896 3.952861 -2.136311
A -4.451885 1.901751 -3.721998
A -3.197110 4.414804 -2.418833
A -3.801372 0.054758 -4.292502
A -3.464161 2.874509 3.300473
A 4.399012 -3.178934 2.638990
A 0.186008 -2.225696 -1.384781
A 1.381533 3.524426 -0.507345
A -3.618887 -2.907826 4.065247
A 2.471814 3.902867 3.885766
A 2.362283 2.037093 -0.123430
A 0.873514 2.714300 -1.038348
A 4.637127 -0.116781 -3.984708
A 2.667580 -1.730481 1.767172
A -3.425303 -2.543467 0.446726
A 0.209780 -0.070936 -1.790848
A -4.372831 -0.774173 -1.200945
A 3.866713 -0.389299 -3.433846
A 2.639001 4.150707 -3.107175
A -1.432210 0.993138 3.235174
A 4.384401 -3.297082 -4.362809
A 0.778551 -4.470885 -4.328208
A 1.941538 -0.418815 -4.680302
A -0.754673 1.438678 1.328996
A 3.011902 0.564858 -0.952066
A 4.365870 1.251326 1.705788
A 0.500834 1.744349 -1.413947
A 0.632003 -3.736883 1.996274
A -1.792588 3.443542 1.333832
A 3.629426 1.746434 2.177254
A -3.455724 -0.887000 -0.868739
A 4.572504 1.060213 -1.296287
A 3.223539 -4.598243 -3.786388
A 3.056384 -0.808644 0.044803
A -1.823975 2.445576 -3.546342
A -3.090846 0.120927 -0.994561
A 2.792471 4.070308 2.574004
A 1.732440 2.481634 -2.656023
A 4.504416 -2.473458 2.004147
A -1.029029 0.316777 -3.155664
A -2.583646 0.715173 2.628925
A 3.026164 4.302676 -1.012866
A 0.879922 -1.573737 -3.196458
A 1.647518 -2.752925 -4.138877
A 4.440035 -0.592155 -2.031237
A 1.381235 1.128892 -1.447848
A 1.761048 -1.235322 -1.857687
A 2.394253 1.187492 -3.825581
A -3.619018 -2.109927 2.341637
A 0.194590 -3.288333 -3.305135
A 0.206225 2.656986 -3.066873
A -3.701129 2.748816 4.658664
A -1.438077 4.660039 2.230126
A 2.109993 -3.304812 1.033531
A -3.603179 2.578502 0.856581
A 0.932437 -1.829531 -2.211971
A -4.645604 -2.789721 4.370321
A 3.540837 -0.152643 -0.513699
A 0.224984 2.515074 0.565361
A -2.138835 -3.724052 -4.252735
A 1.989798 -3.421870 4.611751
A -0.319251 2.095687 -2.413610
A 2.345142 -2.555651 0.371374
A 4.583521 3.811908 -0.134831
A -1.357684 -4.171236 3.687497
A -2.503060 -2.274699 -3.638742
A 4.624187 3.934852 3.312615
A -3.297912 1.096033 -0.154267
A 1.046709 -2.710593 -1.698445
A -4.509671 1.214459 0.180667
A -4.673728 -0.567867 0.875087
A -2.198904 -3.717257 -2.297907
A 1.330918 0.163381 -3.051178
A -2.003666 3.016626 -4.478105
A -0.480445 -0.967673 3.967999
A -3.952520 -3.894297 -0.925339
A 1.552516 -4.122668 -1.449123
A 0.202650 4.701951 2.962931
A 2.106871 2.759516 -0.896874
A -0.844359 4.361711 -2.997863
A -3.845609 -3.917206 0.054445
A -1.008629 -1.503596 -1.718094
A -4.399008 -3.919739 2.475676
A 1.554529 0.414097 -4.157948
A 4.593363 -3.757270 -2.569445
A -3.744293 0.324179 2.468898
A 2.016888 2.404541 -3.980036
A 3.517083 -1.616206 -2.943210
A 3.871360 -4.450206 0.536344
A 2.352861 0.995523 -1.735415
A 0.022111 0.636053 -0.942390
A 1.573059 1.151177 -0.076307
A 1.726967 4.464250 -0.705033
A -1.397253 1.212825 0.042798
A -2.110822 -3.887440 -0.411205
A -0.852967 -2.292053 1.698781
A -4.336120 0.321009 0.797687
A 1.960580 -1.869575 -0.150136
A 3.543479 2.023024 -0.046572
A -0.525222 -2.862646 -2.438827
A -2.487327 -1.433777 -1.042956
A -0.318992 -4.301495 2.114713
A -2.683933 -1.798411 3.819044
A -0.830279 4.685805 4.397162
A -1.813944 -3.630119 0.472101
A -3.987545 1.791610 -2.596603
A 2.775717 1.665884 0.641806
A -2.300781 -3.848520 4.136506
A 0.654675 -1.510226 -4.441462
A -4.194979 -1.875709 4.169765
A 4.501050 3.250094 -1.176863
A 0.381295 3.664824 1.960342
A -0.755494 2.667763 -3.203885
A -1.270398 1.481627 -2.338216
A 0.256992 1.355603 -2.255507
A -4.686872 -1.509095 2.415515
A 2.231210 2.676946 0.716223
A 2.761468 -2.341557 -0.635155
A 2.386085 -0.390588 0.842739
A -1.061566 -0.537557 1.902143
A -0.853159 -1.135926 -0.010557
A 1.578693 -0.171335 -1.941629
A 0.849459 -3.439535 -1.018214
A -2.697207 -2.173481 2.783726
A -4.545084 4.205241 1.232217
A -0.074119 -0.527253 -0.074152
A -0.106148 -2.055625 2.256832
A 3.454091 -0.142398 -2.266821
A 3.429561 0.892996 2.503062
A -3.070482 -0.659174 -3.401522
A 2.816726 -4.096786 -3.048806
A 4.419888 1.273906 -2.336575
B 2.517482 2.943118 1.512130
B 4.353719 -0.627758 4.658328
B -2.921927 0.889038 4.686465
B 2.100138 0.269654 1.127035
B 4.345327 3.691462 -1.882106
B 4.089479 1.124117 0.299059
B -3.003835 -2.564078 2.138295
B 0.627749 -2.679648 -2.448447
B -0.442423 2.801450 -4.657290
B -0.228888 -4.422448 3.626302
B 0.933623 4.328408 -0.941212
B 3.132878 -4.302249 2.108012
B 3.655147 4.636090 -0.598300
B -1.391765 -3.569615 -3.778717
B -2.212959 -4.150128 2.287502
B -3.854914 -0.374130 0.557222
B 3.185374 3.403340 2.373990
B 2.043086 -3.289309 0.127601
B -4.428923 -3.795584 0.693253
B 1.650068 -1.952755 -2.497562
B -3.178571 -2.407521 -0.405998
B 4.028784 -4.133779 -2.149913
B 1.250858 -3.778589 4.554229
B -2.231875 1.705017 -4.167313
B -0.125300 -3.516259 -0.178756
B -2.134761 -3.228563 -0.985572
B -1.250388 1.905370 -0.451313
B -1.397050 3.282350 0.556491
B 0.298686 0.835845 2.260855
B -2.982129 -4.542372 3.595648
B -1.405958 2.145813 -2.831687
B 1.574538 2.744311 -4.611521
B -2.007699 -2.625239 -1.899564
B 1.901951 1.871485 -3.130118
B -4.694291 1.298961 1.013568
B -1.912177 -4.503584 3.045213
B 3.125736 1.718822 1.506287
B -1.417852 0.879143 -2.806479
B -4.608195 0.226630 1.529706
B -0.226840 2.567683 1.451812
B -0.707294 -2.054866 -0.692483
B -2.454254 1.688327 2.300423
B 2.390241 0.660385 3.437225
B -4.548560 -1.486622 3.277519
B -3.160198 3.845045 -0.438850
B -1.151505 2.382188 -4.152300
B -0.763909 -1.391044 2.436175
B 1.714696 -3.183490 -1.729503
B -2.714808 2.785927 -3.520846
B 0.466406 -2.362868 3.803377
B 3.354557 1.079626 -3.881592
B -1.554929 -4.647179 -0.718749
B -2.178670 3.699985 3.962150
B 2.572472 -1.067058 1.331182
B -4.140276 -1.053344 4.117303
B 0.782412 -4.307395 -0.421590
B -1.628623 0.670773 3.960917
B -2.724035 -1.511233 -3.375920
B -3.040668 -4.483270 0.320197
B -0.906935 0.812449 -4.395797
B -3.738640 -1.261312 -1.676844
B 2.381178 3.608635 -1.450300
B -3.531932 1.331922 3.816744
B -0.046772 3.091574 -0.511720
B -0.251568 -4.469390 -3.412622
B 1.476050 -2.021213 0.544992
B 0.142715 -3.852579 2.745008
B 4.440382 4.468271 -3.814563
B -4.137801 3.162540 -1.009136
B 0.389505 2.362482 -0.316390
B -1.286234 1.736029 0.691589
B 2.489168 -0.278712 4.060612
B 1.662779 -4.020334 3.178693
B 4.085558 2.210368 -2.292094
B 4.425779 -3.412422 -3.302070
B -3.865524 3.831504 -4.315151
B 1.230163 4.234581 -2.597841
B 2.787113 -4.409561 -2.351751
B 3.306273 -1.350652 2.340781
B 4.005827 -2.477734 4.194129
B 3.581396 2.501416 -3.834625
B 4.423811 3.149291 1.006981
B 0.432891 4.532793 2.228979
B 3.916957 -0.809650 -2.686491
B -3.324152 1.024301 -1.133600
B -0.636701 -2.122401 -2.065483
B -2.738773 -4.329372 -4.699092
B 1.858671 0.636505 -3.419388
B -1.732896 -2.068919 -3.208801
B -0.038948 -1.899916 -0.045649
B 4.490663 0.147079 -3.090278
B -1.765983 -2.519558 2.811471
B -1.789106 4.004466 1.872648
B -0.464579 0.444713 -1.744798
B 4.257530 -0.717245 -0.724465
B -2.003685 2.480300 3.861576
B 1.564207 -4.052657 -3.157335
B 1.844105 1.518943 2.026947
B 1.550275 3.085890 -1.335407
B -0.679474 2.702635 -0.885398
B -3.783454 0.829388 0.664690
B -3.742600 -4.435069 -3.691751
B 1.402898 -0.098761 -0.421332
B 1.142037 1.540448 -2.127391
B 3.476113 -2.167708 3.513418
B 3.030174 0.820989 -2.305058
B 4.543645 -2.559534 -3.897524
B -1.965277 -2.163318 -0.172368
B 3.090169 -4.207021 -1.218677
B 0.748433 2.111898 2.760825
B -0.716524 -1.105798 -1.114000
B -4.416986 3.250040 -2.671974
B 1.626716 -0.937916 2.359061
B 2.694346 -3.496965 3.177113
B -0.466550 -2.401069 -4.169309
B -4.213516 -4.664580 2.908388
B 3.349848 3.617467 3.684081
B -0.819857 -1.020936 -2.417767
B 1.271650 -3.212552 2.193598
B 0.382146 -0.855892 4.470740
B -0.421672 3.342745 -3.542181
B -2.848470 2.530715 -0.844693
B 4.160242 -1.256102 -1.380474
B -3.464028 4.077054 4.149724
B -4.607566 0.008273 3.394969
B -2.601616 0.832076 -0.626688
B 3.400011 -4.369773 4.302361
B -0.951176 -2.550596 -1.472081
B 1.694629 2.078204 -0.766408
B -3.056635 -3.578095 -2.534559
B -1.407375 -0.622512 3.062515
B -4.241465 -2.329046 -0.656720
B -2.106013 -3.824638 -3.348916
B -2.266358 3.777041 -1.199070
B -1.226512 2.904059 4.406598
B 2.562890 -2.817955 -3.966901
B 2.478492 4.527795 4.444389
B -3.123683 -2.661320 -4.014236
B -4.624014 0.833444 -0.487680
B 4.307319 2.538375 3.234244
B -3.536620 3.520247 -2.097958
B -3.711144 -2.801215 -2.434702
B 2.133183 3.117008 -0.040613
B -1.972378 0.370191 3.270862
B -3.301506 0.531237 1.594535
B 2.333528 -2.676756 4.485453
B 2.921407 2.833395 -1.141535
B -2.510815 -4.466816 -2.762612
B -3.384359 -4.227407 -2.230004
B 2.087790 -0.560114 -2.463168
B 0.589748 0.154867 1.328783
B 0.570618 -3.826057 0.937788
B 4.417374 -3.591261 4.096790
B 1.660538 4.170438 -4.177943
B -4.447506 2.690118 -3.640724
B -4.684976 -3.466331 -0.415978
B -1.354880 -4.633996 -1.981480
B -4.344287 -0.381122 -2.516584
B -2.369370 -1.365884 0.683633
B -1.841309 0.948077 2.465378
B 3.844820 1.505691 3.439189
B -1.891365 -1.681606 -1.848110
B -3.910982 -3.708765 1.877117
B -1.298935 2.689770 1.798391
B -2.185424 2.013645 -2.071249
B -1.695435 2.362295 0.340194
B -1.398285 -2.862360 1.890088
B 0.254317 3.281991 -4.033141
B -1.685119 4.037467 -3.928995
B -2.635737 -0.966747 4.101207
B 4.627586 -1.657653 -4.606555
B 0.245272 1.103462 -0.343593
B -3.728502 3.772387 0.928987
B 0.957055 2.076071 0.377022
B 1.041357 4.561535 3.462380
B 2.541535 4.500122 3.308479
B 3.648171 -2.149412 -0.651061
B -0.178210 -3.736902 -2.612360
B 1.574199 -0.478962 -1.181762
B -1.712947 -0.897767 2.239966
B 2.776806 -0.328727 -3.890222
B -3.696714 -0.823186 -4.030602
B -2.078504 -0.484798 4.475448
B -2.422044 -0.212821 -3.075595
B 1.518978 -1.158408 0.770433
B 3.318516 -2.373149 -3.025134
B -0.387573 -4.555603 -0.342800
B -2.352830 1.395694 -0.034034
B -1.265976 -3.847052 -2.244442
B -0.235290 -2.693803 2.914065
B -3.310965 2.632341 -1.714278
B -1.823907 -0.306553 0.111681
B 1.703528 0.581938 -2.320002
B 0.269030 3.184231 -2.266557
B 3.743573 -0.499613 2.502126
B 0.041081 0.240857 3.850076
B 1.933547 -1.893467 -4.667990
B 3.094799 -2.267284 2.307856
B -1.839818 1.625478 3.872014
B -0.526710 4.504663 2.563049
